<?xml version="1.0" encoding="UTF-8" standalone="no"?>
<!-- Created with Inkscape (http://www.inkscape.org/) -->

<svg
   xmlns:dc="http://purl.org/dc/elements/1.1/"
   xmlns:cc="http://creativecommons.org/ns#"
   xmlns:rdf="http://www.w3.org/1999/02/22-rdf-syntax-ns#"
   xmlns:svg="http://www.w3.org/2000/svg"
   xmlns="http://www.w3.org/2000/svg"
   xmlns:sodipodi="http://sodipodi.sourceforge.net/DTD/sodipodi-0.dtd"
   xmlns:inkscape="http://www.inkscape.org/namespaces/inkscape"
   width="537.96875"
   height="247.38721"
   id="svg10010"
   version="1.1"
   inkscape:version="0.48.2 r9819"
   sodipodi:docname="understand_src_bin_dir.svg">
  <defs
     id="defs3">
    <marker
       inkscape:stockid="Arrow2Lend"
       orient="auto"
       refY="0"
       refX="0"
       id="Arrow2Lend"
       style="overflow:visible">
      <path
         id="path6210"
         style="font-size:12px;fill-rule:evenodd;stroke-width:0.625;stroke-linejoin:round"
         d="M 8.7185878,4.0337352 -2.2072895,0.01601326 8.7185884,-4.0017078 c -1.7454984,2.3720609 -1.7354408,5.6174519 -6e-7,8.035443 z"
         transform="matrix(-1.1,0,0,-1.1,-1.1,0)"
         inkscape:connector-curvature="0" />
    </marker>
    <marker
       inkscape:stockid="Arrow2Mend"
       orient="auto"
       refY="0"
       refX="0"
       id="Arrow2Mend"
       style="overflow:visible">
      <path
         id="path6216"
         style="font-size:12px;fill-rule:evenodd;stroke-width:0.625;stroke-linejoin:round"
         d="M 8.7185878,4.0337352 -2.2072895,0.01601326 8.7185884,-4.0017078 c -1.7454984,2.3720609 -1.7354408,5.6174519 -6e-7,8.035443 z"
         transform="scale(-0.6,-0.6)"
         inkscape:connector-curvature="0" />
    </marker>
  </defs>
  <sodipodi:namedview
     inkscape:document-units="mm"
     id="base"
     pagecolor="#ffffff"
     bordercolor="#666666"
     borderopacity="1.0"
     inkscape:pageopacity="0.0"
     inkscape:pageshadow="2"
     inkscape:zoom="1.3804531"
     inkscape:cx="350.59754"
     inkscape:cy="149.18303"
     inkscape:current-layer="layer1"
     showgrid="false"
     fit-margin-top="0"
     fit-margin-left="0"
     fit-margin-right="0"
     fit-margin-bottom="0"
     inkscape:window-width="1257"
     inkscape:window-height="975"
     inkscape:window-x="236"
     inkscape:window-y="227"
     inkscape:window-maximized="0" />
  <metadata
     id="metadata4">
    <rdf:RDF>
      <cc:Work
         rdf:about="">
        <dc:format>image/svg+xml</dc:format>
        <dc:type
           rdf:resource="http://purl.org/dc/dcmitype/StillImage" />
        <dc:title />
      </cc:Work>
    </rdf:RDF>
  </metadata>
  <g
     inkscape:label="Layer 1"
     inkscape:groupmode="layer"
     id="layer1"
     transform="translate(43.84375,-57.6875)">
    <rect
       style="fill:#cccccc;stroke:#000000;stroke-width:1;stroke-opacity:1"
       id="rect10016"
       width="123.66485"
       height="27.547779"
       x="150.33954"
       y="58.19841" />
    <text
       xml:space="preserve"
       style="font-size:12px;font-style:normal;font-weight:normal;line-height:125%;letter-spacing:0px;word-spacing:0px;fill:#000000;fill-opacity:1;stroke:none;font-family:Sans"
       x="161.75204"
       y="75.282845"
       id="text10526"
       sodipodi:linespacing="125%"><tspan
         sodipodi:role="line"
         id="tspan10528"
         x="161.75204"
         y="75.282845">Source Directory</tspan></text>
    <rect
       style="fill:#ffaaaa;stroke:#000000;stroke-width:1;stroke-opacity:1"
       id="rect10536"
       width="130.59171"
       height="27.547779"
       x="347.40103"
       y="115.48905" />
    <text
       xml:space="preserve"
       style="font-size:12px;font-style:normal;font-weight:normal;line-height:125%;letter-spacing:0px;word-spacing:0px;fill:#000000;fill-opacity:1;stroke:none;font-family:Sans"
       x="358.81354"
       y="132.57347"
       id="text10538"
       sodipodi:linespacing="125%"><tspan
         sodipodi:role="line"
         id="tspan10540"
         x="358.81354"
         y="132.57347">Binary Directory 2</tspan></text>
    <path
       style="fill:none;stroke:#000000;stroke-width:1px;stroke-linecap:butt;stroke-linejoin:miter;stroke-opacity:1"
       d="m 163.23026,86.340717 0,182.435923"
       id="path10542"
       inkscape:connector-curvature="0" />
    <rect
       style="fill:#ffffff;stroke:#000000;stroke-width:1;stroke-opacity:1"
       id="rect10552"
       width="123.66485"
       height="60.198544"
       x="173.29237"
       y="123.9931" />
    <text
       xml:space="preserve"
       style="font-size:8px;font-style:normal;font-weight:normal;line-height:125%;letter-spacing:0px;word-spacing:0px;fill:#000000;fill-opacity:1;stroke:none;font-family:Sans"
       x="178.27007"
       y="138.57848"
       id="text10554"
       sodipodi:linespacing="125%"><tspan
         sodipodi:role="line"
         id="tspan10556"
         x="178.27007"
         y="138.57848">PROJECT(CFS C CXX Fortran)</tspan><tspan
         sodipodi:role="line"
         x="178.27007"
         y="148.57848"
         id="tspan10558" /><tspan
         sodipodi:role="line"
         x="178.27007"
         y="158.57848"
         id="tspan10562">SUBDIRS(source/main)</tspan><tspan
         sodipodi:role="line"
         x="178.27007"
         y="168.57848"
         id="tspan10564" /><tspan
         sodipodi:role="line"
         x="178.27007"
         y="178.57848"
         id="tspan10560">...</tspan></text>
    <g
       id="g10592"
       transform="translate(19.303684,-54.209058)">
      <path
         inkscape:connector-curvature="0"
         id="path10544"
         d="m 143.88229,170.03256 10.11518,0"
         style="fill:none;stroke:#000000;stroke-width:1px;stroke-linecap:butt;stroke-linejoin:miter;stroke-opacity:1" />
      <rect
         y="159.83876"
         x="153.98869"
         height="20.113091"
         width="123.66485"
         id="rect10566"
         style="fill:#ffff00;stroke:#000000;stroke-width:1;stroke-opacity:1" />
      <text
         sodipodi:linespacing="125%"
         id="text10568"
         y="174.36894"
         x="171.826"
         style="font-size:12px;font-style:normal;font-weight:normal;line-height:125%;letter-spacing:0px;word-spacing:0px;fill:#000000;fill-opacity:1;stroke:none;font-family:Sans"
         xml:space="preserve"><tspan
           y="174.36894"
           x="171.826"
           id="tspan10570"
           sodipodi:role="line">CMakeLists.txt</tspan></text>
    </g>
    <path
       inkscape:connector-curvature="0"
       id="path10600"
       d="m 162.83866,204.66802 11.20596,0"
       style="fill:none;stroke:#000000;stroke-width:1px;stroke-linecap:butt;stroke-linejoin:miter;stroke-opacity:1" />
    <rect
       y="194.47423"
       x="173.29237"
       height="20.113091"
       width="123.66485"
       id="rect10602"
       style="fill:#ffffff;stroke:#000000;stroke-width:1;stroke-opacity:1" />
    <text
       sodipodi:linespacing="125%"
       id="text10604"
       y="207.67433"
       x="186.67949"
       style="font-size:12px;font-style:normal;font-weight:normal;line-height:125%;letter-spacing:0px;word-spacing:0px;fill:#000000;fill-opacity:1;stroke:none;font-family:Sans"
       xml:space="preserve"><tspan
         y="207.67433"
         x="186.67949"
         id="tspan10606"
         sodipodi:role="line">cmake_modules</tspan></text>
    <path
       style="fill:none;stroke:#000000;stroke-width:1px;stroke-linecap:butt;stroke-linejoin:miter;stroke-opacity:1"
       d="m 359.49135,262.22915 11.20596,0"
       id="path10654"
       inkscape:connector-curvature="0" />
    <rect
       style="fill:#ffffff;stroke:#000000;stroke-width:1;stroke-opacity:1"
       id="rect10656"
       width="123.66485"
       height="20.113091"
       x="369.94504"
       y="252.03535" />
    <text
       xml:space="preserve"
       style="font-size:12px;font-style:normal;font-weight:normal;line-height:125%;letter-spacing:0px;word-spacing:0px;fill:#000000;fill-opacity:1;stroke:none;font-family:Sans"
       x="383.33215"
       y="265.23547"
       id="text10658"
       sodipodi:linespacing="125%"><tspan
         sodipodi:role="line"
         id="tspan10660"
         x="383.33215"
         y="265.23547">CMakeFiles</tspan></text>
    <g
       id="g10608"
       transform="translate(20.047153,65.861151)">
      <path
         inkscape:connector-curvature="0"
         id="path10610"
         d="m 142.79151,170.03256 11.20596,0"
         style="fill:none;stroke:#000000;stroke-width:1px;stroke-linecap:butt;stroke-linejoin:miter;stroke-opacity:1" />
      <rect
         y="159.83876"
         x="153.24522"
         height="20.113083"
         width="67.161209"
         id="rect10612"
         style="fill:#ffffff;stroke:#000000;stroke-width:1;stroke-opacity:1" />
      <text
         sodipodi:linespacing="125%"
         id="text10614"
         y="173.03886"
         x="166.63234"
         style="font-size:12px;font-style:normal;font-weight:normal;line-height:125%;letter-spacing:0px;word-spacing:0px;fill:#000000;fill-opacity:1;stroke:none;font-family:Sans"
         xml:space="preserve"><tspan
           y="173.03886"
           x="166.63234"
           id="tspan10616"
           sodipodi:role="line">source</tspan></text>
    </g>
    <g
       transform="translate(19.303684,98.573778)"
       id="g10618">
      <path
         style="fill:none;stroke:#000000;stroke-width:1px;stroke-linecap:butt;stroke-linejoin:miter;stroke-opacity:1"
         d="m 143.88229,170.03256 10.11518,0"
         id="path10620"
         inkscape:connector-curvature="0" />
      <rect
         style="fill:#ffffff;stroke:#000000;stroke-width:1;stroke-opacity:1"
         id="rect10622"
         width="38.321514"
         height="20.113083"
         x="153.24522"
         y="159.83876" />
      <text
         xml:space="preserve"
         style="font-size:12px;font-style:normal;font-weight:normal;line-height:125%;letter-spacing:0px;word-spacing:0px;fill:#000000;fill-opacity:1;stroke:none;font-family:Sans"
         x="166.63234"
         y="173.03886"
         id="text10624"
         sodipodi:linespacing="125%"><tspan
           sodipodi:role="line"
           id="tspan10626"
           x="166.63234"
           y="173.03886">...</tspan></text>
    </g>
    <path
       inkscape:connector-curvature="0"
       id="path10628"
       d="m 359.88295,143.90185 0,151.06603"
       style="fill:none;stroke:#000000;stroke-width:1px;stroke-linecap:butt;stroke-linejoin:miter;stroke-opacity:1" />
    <rect
       y="181.55423"
       x="369.94504"
       height="60.198544"
       width="123.66485"
       id="rect10630"
       style="fill:#ffffff;stroke:#000000;stroke-width:1;stroke-opacity:1" />
    <text
       sodipodi:linespacing="125%"
       id="text10632"
       y="196.1396"
       x="374.92273"
       style="font-size:8px;font-style:normal;font-weight:normal;line-height:125%;letter-spacing:0px;word-spacing:0px;fill:#000000;fill-opacity:1;stroke:none;font-family:Sans"
       xml:space="preserve"><tspan
         y="196.1396"
         x="374.92273"
         id="tspan10634"
         sodipodi:role="line">DEBUG:BOOL=ON</tspan><tspan
         id="tspan10636"
         y="206.1396"
         x="374.92273"
         sodipodi:role="line" /><tspan
         id="tspan10638"
         y="216.1396"
         x="374.92273"
         sodipodi:role="line">USE_GMSH:BOOL=ON</tspan><tspan
         id="tspan10640"
         y="226.1396"
         x="374.92273"
         sodipodi:role="line" /><tspan
         id="tspan10642"
         y="236.1396"
         x="374.92273"
         sodipodi:role="line">...</tspan></text>
    <g
       transform="translate(215.95638,3.3520776)"
       id="g10644">
      <path
         style="fill:none;stroke:#000000;stroke-width:1px;stroke-linecap:butt;stroke-linejoin:miter;stroke-opacity:1"
         d="m 143.88229,170.03256 10.11518,0"
         id="path10646"
         inkscape:connector-curvature="0" />
      <rect
         style="fill:#ffff00;stroke:#000000;stroke-width:1;stroke-opacity:1"
         id="rect10648"
         width="123.66485"
         height="20.113091"
         x="153.98869"
         y="159.83876" />
      <text
         xml:space="preserve"
         style="font-size:12px;font-style:normal;font-weight:normal;line-height:125%;letter-spacing:0px;word-spacing:0px;fill:#000000;fill-opacity:1;stroke:none;font-family:Sans"
         x="166.7635"
         y="174.36894"
         id="text10650"
         sodipodi:linespacing="125%"><tspan
           sodipodi:role="line"
           id="tspan10652"
           x="166.7635"
           y="174.36894">CMakeCache.txt</tspan></text>
    </g>
    <g
       id="g10672"
       transform="translate(215.95638,124.63721)">
      <path
         inkscape:connector-curvature="0"
         id="path10674"
         d="m 143.88229,170.03256 10.11518,0"
         style="fill:none;stroke:#000000;stroke-width:1px;stroke-linecap:butt;stroke-linejoin:miter;stroke-opacity:1" />
      <rect
         y="159.83876"
         x="153.24522"
         height="20.113083"
         width="38.321514"
         id="rect10676"
         style="fill:#ffffff;stroke:#000000;stroke-width:1;stroke-opacity:1" />
      <text
         sodipodi:linespacing="125%"
         id="text10678"
         y="173.03886"
         x="166.63234"
         style="font-size:12px;font-style:normal;font-weight:normal;line-height:125%;letter-spacing:0px;word-spacing:0px;fill:#000000;fill-opacity:1;stroke:none;font-family:Sans"
         xml:space="preserve"><tspan
           y="173.03886"
           x="166.63234"
           id="tspan10680"
           sodipodi:role="line">...</tspan></text>
    </g>
    <rect
       y="115.48905"
       x="-43.332958"
       height="27.547779"
       width="130.59171"
       id="rect10690"
       style="fill:#ffaaaa;stroke:#000000;stroke-width:1;stroke-opacity:1" />
    <text
       sodipodi:linespacing="125%"
       id="text10692"
       y="132.57347"
       x="-31.920454"
       style="font-size:12px;font-style:normal;font-weight:normal;line-height:125%;letter-spacing:0px;word-spacing:0px;fill:#000000;fill-opacity:1;stroke:none;font-family:Sans"
       xml:space="preserve"><tspan
         y="132.57347"
         x="-31.920454"
         id="tspan10694"
         sodipodi:role="line">Binary Directory 1</tspan></text>
    <path
       inkscape:connector-curvature="0"
       id="path10696"
       d="m -31.242656,262.22915 11.20596,0"
       style="fill:none;stroke:#000000;stroke-width:1px;stroke-linecap:butt;stroke-linejoin:miter;stroke-opacity:1" />
    <rect
       y="252.03535"
       x="-20.788954"
       height="20.113091"
       width="123.66485"
       id="rect10698"
       style="fill:#ffffff;stroke:#000000;stroke-width:1;stroke-opacity:1" />
    <text
       sodipodi:linespacing="125%"
       id="text10700"
       y="265.23547"
       x="-7.4018388"
       style="font-size:12px;font-style:normal;font-weight:normal;line-height:125%;letter-spacing:0px;word-spacing:0px;fill:#000000;fill-opacity:1;stroke:none;font-family:Sans"
       xml:space="preserve"><tspan
         y="265.23547"
         x="-7.4018388"
         id="tspan10702"
         sodipodi:role="line">CMakeFiles</tspan></text>
    <path
       style="fill:none;stroke:#000000;stroke-width:1px;stroke-linecap:butt;stroke-linejoin:miter;stroke-opacity:1"
       d="m -30.851056,143.90185 0,151.06603"
       id="path10704"
       inkscape:connector-curvature="0" />
    <rect
       style="fill:#ffffff;stroke:#000000;stroke-width:1;stroke-opacity:1"
       id="rect10706"
       width="123.66485"
       height="60.198544"
       x="-20.788954"
       y="181.55423" />
    <text
       xml:space="preserve"
       style="font-size:8px;font-style:normal;font-weight:normal;line-height:125%;letter-spacing:0px;word-spacing:0px;fill:#000000;fill-opacity:1;stroke:none;font-family:Sans"
       x="-15.811262"
       y="196.1396"
       id="text10708"
       sodipodi:linespacing="125%"><tspan
         sodipodi:role="line"
         id="tspan10710"
         x="-15.811262"
         y="196.1396">DEBUG:BOOL=OFF</tspan><tspan
         sodipodi:role="line"
         x="-15.811262"
         y="206.1396"
         id="tspan10712" /><tspan
         sodipodi:role="line"
         x="-15.811262"
         y="216.1396"
         id="tspan10714">USE_GMSH:BOOL=OFF</tspan><tspan
         sodipodi:role="line"
         x="-15.811262"
         y="226.1396"
         id="tspan10716" /><tspan
         sodipodi:role="line"
         x="-15.811262"
         y="236.1396"
         id="tspan10718">...</tspan></text>
    <g
       id="g10720"
       transform="translate(-174.77762,3.3520776)">
      <path
         inkscape:connector-curvature="0"
         id="path10722"
         d="m 143.88229,170.03256 10.11518,0"
         style="fill:none;stroke:#000000;stroke-width:1px;stroke-linecap:butt;stroke-linejoin:miter;stroke-opacity:1" />
      <rect
         y="159.83876"
         x="153.98869"
         height="20.113091"
         width="123.66485"
         id="rect10724"
         style="fill:#ffff00;stroke:#000000;stroke-width:1;stroke-opacity:1" />
      <text
         sodipodi:linespacing="125%"
         id="text10726"
         y="174.36894"
         x="166.7635"
         style="font-size:12px;font-style:normal;font-weight:normal;line-height:125%;letter-spacing:0px;word-spacing:0px;fill:#000000;fill-opacity:1;stroke:none;font-family:Sans"
         xml:space="preserve"><tspan
           y="174.36894"
           x="166.7635"
           id="tspan10728"
           sodipodi:role="line">CMakeCache.txt</tspan></text>
    </g>
    <g
       transform="translate(-174.77762,124.63721)"
       id="g10730">
      <path
         style="fill:none;stroke:#000000;stroke-width:1px;stroke-linecap:butt;stroke-linejoin:miter;stroke-opacity:1"
         d="m 143.88229,170.03256 10.11518,0"
         id="path10732"
         inkscape:connector-curvature="0" />
      <rect
         style="fill:#ffffff;stroke:#000000;stroke-width:1;stroke-opacity:1"
         id="rect10734"
         width="38.321514"
         height="20.113083"
         x="153.24522"
         y="159.83876" />
      <text
         xml:space="preserve"
         style="font-size:12px;font-style:normal;font-weight:normal;line-height:125%;letter-spacing:0px;word-spacing:0px;fill:#000000;fill-opacity:1;stroke:none;font-family:Sans"
         x="166.63234"
         y="173.03886"
         id="text10736"
         sodipodi:linespacing="125%"><tspan
           sodipodi:role="line"
           id="tspan10738"
           x="166.63234"
           y="173.03886">...</tspan></text>
    </g>
    <path
       style="fill:none;stroke:#000000;stroke-width:0.99921262;stroke-linecap:butt;stroke-linejoin:miter;stroke-miterlimit:4;stroke-opacity:1;stroke-dasharray:none;marker-end:url(#Arrow2Lend)"
       d="M 149.771,71.336221 C 62.090886,70.020841 28.00381,68.491947 21.247789,113.83181"
       id="path10740"
       inkscape:connector-curvature="0"
       sodipodi:nodetypes="cc" />
    <path
       sodipodi:nodetypes="cc"
       inkscape:connector-curvature="0"
       id="path11112"
       d="m 273.93685,70.814002 c 87.68011,-1.31538 121.76718,-2.844274 128.52321,42.495588"
       style="fill:none;stroke:#000000;stroke-width:0.99921262;stroke-linecap:butt;stroke-linejoin:miter;stroke-miterlimit:4;stroke-opacity:1;stroke-dasharray:none;marker-end:url(#Arrow2Lend)" />
  </g>
</svg>
